589 1049 179
104 4059 238
824 4269 238
198 1939 182
2243 3103 217
2539 13 209
588 2023 182
1862 4796 238
1194 992 182
4671 4946 210
1048 1951 182
1720 3785 238
2228 2651 209
236 4813 238
4950 3593 238
4132 1416 238
925 4186 238
1079 762 179
1230 333 182
4277 29 238
73 3391 217
1484 2238 183
3902 1028 238
1491 4630 238
2564 4505 238
1062 1603 182
603 3923 238
4303 224 238
3627 651 217
2858 2508 191
2069 1207 180
371 4061 238
4492 1177 238
1927 2027 175
2816 3947 238
1273 3491 217
3850 217 238
241 3931 238
3269 2261 217
727 4047 238
155 1207 182
1044 4130 238
208 3341 217
98 273 128
390 3552 217
1570 4697 238
1607 751 182
4333 413 238
2240 4266 238
3009 3471 199
1076 3879 238
2028 580 182
410 2084 182
68 4823 238
2329 2884 209
1848 1261 180
1757 3187 217
1923 1803 175
3042 50 217
1947 3764 238
2499 4565 238
1363 1866 180
3383 1024 217
10 1427 182
2813 1077 209
4104 1778 238
3441 4835 238
1959 3242 217
1885 461 182
365 821 171
267 4695 238
1771 3981 238
3907 2773 238
3516 3853 238
4417 3518 238
2231 1471 183
2535 4548 238
4856 1663 238
2757 1810 209
888 3848 238
1261 2082 180
2244 3907 238
2508 491 209
4891 931 238
569 3520 217
2468 258 209
4822 2250 238
794 2181 182
216 2303 183
2735 3637 217
1838 2350 183
3595 3388 194
4566 575 238
1017 2118 182
2346 4213 238
1914 2612 209
3737 1143 238
3666 1146 217
2427 664 183
2422 35 183
3615 5 217
1335 2318 183
1611 4801 238
2340 721 183
1190 3124 217
3019 948 217
330 4262 238
3662 4421 238
2495 3735 238
2057 3144 217
4045 52 238
4185 3454 238
3946 1859 238
1449 1621 172
153 1431 182
4070 1258 238
3821 4275 202
88 3975 238
3554 4496 238
1122 2725 209
3737 4490 215
254 3521 217
2567 2515 178
498 308 144
444 4871 238
248 612 144
3979 3737 189
2778 1293 209
300 3124 217
613 1808 182
3263 3056 199
104 1464 182
2250 3835 238
4162 945 238
2130 3902 238
4620 305 238
190 1919 182
3947 307 238
687 4236 238
4416 2545 238
2920 519 217
2242 839 183
2013 604 182
4578 4570 153
1503 4450 238
4656 1494 238
2996 3168 186
2428 221 183
1492 3581 217
4949 2746 238
3216 3147 199
1733 3773 238
254 3761 238
178 4053 238
854 4102 238
711 3368 217
3412 4834 238
4423 3067 238
3076 4685 238
1560 4325 238
4984 1012 238
872 615 179
4525 2273 238
4777 1848 238
4421 810 238
433 3692 217
3630 617 217
3423 1605 217
1096 2141 182
948 4274 238
4660 2206 238
194 2658 209
2825 1270 209
2541 4555 238
61 2584 209
68 1543 182
3198 929 217
4505 1851 238
4376 3783 202
4848 21 238
1110 3707 217
449 4861 238
1967 4343 238
3978 4924 215
4006 540 238
2197 2155 170
2902 1734 209
4088 3009 238
1909 835 182
2046 1886 175
2488 2809 191
1447 809 182
2716 2634 160
1443 723 182
2226 3431 217
2164 2395 183
4639 593 238
2073 2993 217
1629 2491 209
2573 1904 209
988 2286 183
1377 2644 209
1939 4189 238
932 1097 174
2468 3050 217
4405 1448 238
943 2751 209
2203 2460 183
3446 3595 194
378 4569 238
1912 4141 238
3797 2192 238
4256 1280 238
3818 1055 238
1477 920 182
3584 84 217
2909 3349 217
3170 1528 217
4338 2741 238
2662 2252 209
3497 3863 238
1046 601 179
3068 3981 238
1193 4543 238
3596 3655 163
2143 3308 217
1169 2385 183
3448 1319 217
4574 4945 210
1866 4884 238
2868 444 209
3217 1980 217
874 3136 217
3703 1127 217
4548 4992 210
2211 3748 238
925 149 179
828 3746 238
668 1176 182
54 1619 182
3424 2819 217
327 4160 238
3652 1127 217
1993 2702 209
966 3519 217
1134 1756 182
2396 2845 209
1913 1751 175
1246 4196 238
4729 1529 238
1378 4081 238
566 1567 182
3706 4732 238
4099 4586 215
1108 2899 209
2916 4065 238
4961 2677 238
401 3840 238
2835 1442 209
3234 4495 238
874 4446 238
4633 1929 238
1502 1102 182
2629 4733 238
1486 4033 238
986 2204 182
1148 1595 182
1788 736 182
1730 1885 180
2740 4191 238
360 857 171
587 2366 183
3968 645 238
2395 2545 209
16 404 144
4599 2003 238
4117 609 238
1883 3421 217
3764 2146 238
2746 3767 238
3668 4747 238
1134 3867 238
1647 4935 238
4539 888 238
2080 321 182
3634 4819 238
2222 3991 238
1576 3466 217
2726 1020 209
4750 3028 238
4595 4572 171
1790 1652 180
3192 2085 217
3495 2966 199
2928 1021 217
4388 160 238
1841 4901 238
789 1714 182
1645 3166 217
850 4096 238
