1 10 20
100 200 125
201 210 89
900 1000 174
1000 900 174
1 999999 525
1 1 1
50 1050 179
999 1000 112
140892 192211 383
905036 36920 525
249524 540939 470
247515 521677 470
653160 288091 509
831878 360250 509
339564 812521 509
237719 972033 525
485499 542807 470
599160 257297 470
474355 557762 470
497624 700217 509
271591 651140 509
112018 593072 470
219132 783515 509
379085 335696 441
547340 546487 452
190070 363216 443
710018 157748 509
949633 992735 458
172963 618205 470
951440 526921 525
969792 456134 525
746946 608404 509
395274 594078 470
783592 606517 509
679999 349510 509
118445 195390 383
574745 92559 470
565268 581011 390
12875 819288 509
81183 499103 449
598033 938181 525
554629 599269 434
575348 831137 509
344668 358848 441
715134 291181 509
670537 850097 525
220045 529691 470
480884 929959 525
399530 972444 525
670488 321381 509
40425 314905 443
428381 267979 449
285083 642966 509
931417 915128 476
368938 825351 509
574786 299010 470
70133 398844 443
521705 507716 470
255347 954906 525
281351 562149 470
647120 857233 525
958025 644057 525
94729 365058 443
889521 13492 525
44634 63515 340
608969 699172 509
235076 38132 443
322759 742008 509
518508 210686 470
973070 869627 507
466763 385195 449
499289 366078 449
434891 699494 509
74249 905441 525
78427 89878 338
777697 622464 509
717479 762814 424
953963 955443 383
339480 414168 449
76994 381525 443
293408 243666 407
901491 454291 525
472746 591276 470
388557 491050 449
837934 686497 525
854043 507655 525
152397 408528 443
284680 396998 441
530517 425797 470
151751 2969 375
520258 35747 470
767066 386325 509
209284 730422 509
829976 309598 509
153045 643514 509
416798 120981 449
85030 986239 525
213564 736377 509
87578 638332 509
441498 122899 449
956662 607358 525
573363 761538 509
797088 434857 509
388597 312716 441
203988 387035 443
373711 806040 509
423602 129522 449
152746 703124 509
609383 500754 470
155369 962292 525
748993 857271 525
20483 769298 509
920754 350947 525
745206 615125 509
258456 448993 449
136861 770142 509
293165 696819 509
979645 967105 458
867352 832125 525
504624 196105 449
32040 873936 525
252640 120991 443
939422 760533 525
861256 356315 525
251767 725296 509
745519 961957 525
971310 914186 507
539952 821864 509
91543 756712 509
534794 977223 525
54908 364245 443
291303 803432 509
943780 643903 525
600391 688454 509
46742 403866 443
985698 503985 525
614569 500987 470
545027 775259 509
330758 504298 449
432463 222795 449
517822 756186 509
507636 912787 525
702059 696536 411
603683 972419 525
75882 387082 443
202833 74401 383
1584 90772 351
809072 665533 504
542451 734705 509
610889 137923 470
950400 593640 525
470043 794883 509
912760 971410 507
139813 359262 443
634641 587165 509
423103 23451 449
74562 167213 383
863825 798759 525
740897 405845 509
793032 442780 509
514339 30256 470
213011 827460 509
609104 966722 525
511474 839481 525
641355 466361 509
717491 923728 525
413685 72693 449
128490 827939 509
543383 780277 509
56313 844735 525
567721 797996 509
99966 653619 509
17643 568916 470
187396 596299 470
239945 384303 441
781776 914244 525
267941 363846 441
825651 830441 419
819524 343345 509
369644 43317 443
339872 779828 509
843164 514878 525
465526 295371 449
31142 779136 509
227328 629558 509
994703 970617 427
945293 296862 525
151247 634557 509
609162 127251 470
474026 873014 525
113188 757068 509
289321 26281 443
943954 64252 525
358928 599251 470
368300 781852 509
828023 501439 509
506917 675633 509
78211 382551 443
796053 289559 509
391472 99953 443
589083 274370 470
854476 201226 525
624447 608847 447
680945 543779 509
566102 590268 434
55553 564111 470
360968 506717 449
47825 53178 340
70362 103866 351
800988 492198 509
95167 966686 525
416187 715309 509
455520 47607 449
9068 118108 354
530555 598655 452
292619 358791 441
584097 204779 470
403392 983515 525
592337 255217 470
415512 201637 449
159537 432459 449
542412 856029 525
46187 185925 383
900471 393819 525
300554 505643 449
314953 679675 509
732141 60604 509
783817 779369 362
257392 728573 509
816649 871250 525
348235 378080 423
66882 735377 509
734051 510102 509
507565 688017 509
418443 372459 449
964290 900167 507
554494 945882 525
739242 967739 525
896019 56092 525
294671 943784 525
715629 157081 509
358460 84400 443
363666 291542 441
705950 237446 509
652766 279022 509
834525 14153 509
124485 231830 443
905885 474527 525
721585 483127 509
